893092 145957
331726 963939
330014 267606
218619 259234
48471 851858
436569 551041
418540 525146
96096 404874
865223 348670
748826 417962
512927 447394
272124 846989
607793 327175
717543 715255
527178 762798
690357 966867
825828 259768
508502 827627
547168 31113
449005 815994
80399 242196
173512 663558
952319 897329
28048 908208
593324 37888
843711 548400
226544 694190
819503 799664
204764 207692
393466 206163
336967 631833
977401 280851
219042 908094
871462 76808
787489 864433
853027 830944
517094 494588
566617 446563
630142 413227
487135 91781
127497 264749
448570 113439
705405 498576
649609 289327
360675 18745
373236 505534
267500 520726
43339 292704
88831 809828
673185 22285
205584 60893
371798 151592
528667 310246
357452 224576
836458 317633
595096 135204
447411 488079
265226 684358
391719 933895
419344 153766
24663 176750
468856 72953
267212 991695
791280 895918
393220 49567
22215 624468
328696 540708
362916 818790
270 392253
492913 841419
868255 997342
823393 294871
352972 783627
994855 73191
667920 289904
17670 668035
601703 34430
509614 202546
273912 705230
484324 821769
896491 516311
219748 336503
50227 111672
698639 317087
609295 603594
263518 593735
653127 361507
800301 212892
711681 911379
635752 566700
753135 458053
187861 9095
472989 695273
909660 900399
238200 340996
841446 239063
170295 970552
324547 47583
89494 994789
963589 454622
324817 123378
232411 527546
121451 968848
791826 992083
668785 36205
268578 892033
739068 612207
77063 366969
354009 977946
248655 403588
865328 728143
45598 512506
604770 51814
615207 637562
28705 268232
250125 900102
527433 104317
547657 587165
500310 796544
34217 938849
628210 995667
897324 96826
113269 910698
917338 208597
175939 874984
305939 73656
264965 45906
87833 899757
53742 911167
58184 300897
893906 834426
477421 693287
210370 548219
779017 735768
583623 725849
930040 225541
816355 501799
547424 714345
32698 968727
474868 724842
564897 970217
935082 275172
120583 553933
131861 142926
236048 186418
659996 613413
340604 50755
625464 89150
164929 364772
810577 750303
602450 116554
494598 239268
641886 814118
6394 58186
294892 293087
724449 438003
71929 718289
22447 403270
792145 744420
159600 707977
74056 215051
896479 227224
721068 310848
914766 588687
64286 345667
593775 316170
407637 152429
829375 896863
389693 842097
556898 921807
350714 456944
472250 502169
912849 625423
919688 918132
798756 102111
644134 635910
656661 286224
580907 440932
49985 326056
229244 742940
96766 654195
737892 92766
205607 78476
285986 547812
967144 428248
977416 556751
282697 853205
161245 747991
228420 63948
35985 195458
62159 3766
93965 387061
435251 977986
813230 670025
410717 651478
134444 732884
898234 724788
673257 400708
689617 633059
161060 49650
475937 608728
770455 573938
106193 703748
416863 645929
308131 916041
164930 912852
26416 794065
238343 601962
969331 296632
60436 301502
819514 400778
297471 598616
714017 127292
72785 701484
366279 871254
88705 767993
337202 112830
730366 297971
172133 916953
731218 64619
483827 6295
515553 750074
259846 922579
176746 889396
473864 526958
237720 26882
126247 992052
472835 64498
643175 584341
797175 781655
291575 554091
153410 535572
262101 775172
842479 222761
978703 669328
846602 950470
378874 989621
946280 76059
74130 820702
286741 641259
48459 675380
172306 56077
476610 385504
604500 585439
361391 270037
770174 92067
666397 466303
79706 722736
793819 494055
19824 713840
