1 10 20
100 200 125
201 210 89
900 1000 174
10 10 7
10 1 20
607353 674858 509
981051 289736 525
346352 745225 509
196887 944750 525
286484 199462 443
344178 244940 407
538795 329891 470
469524 434636 444
54236 942016 525
468074 956154 525
219749 602802 470
871037 672973 525
573127 524964 452
54386 263437 443
391918 563805 470
715696 614996 509
648715 675351 442
369684 855185 525
589290 83180 470
350999 649716 509
76700 883144 525
306113 126925 443
518695 519765 439
37747 883525 525
480902 585958 470
496909 99120 449
587892 813322 509
802092 161663 509
328100 932279 525
930792 819662 525
310378 28555 443
75839 880169 525
300704 886301 525
153548 120925 375
535787 77238 470
240797 241314 288
691578 336424 509
387096 486583 449
998409 311774 525
465757 995798 525
629252 305748 509
694844 426842 509
210632 452140 449
968761 892763 507
215880 207468 373
723887 663539 504
683848 640824 442
442564 529884 470
910027 132371 525
112788 442706 449
40626 470190 449
981761 520442 525
498515 215892 449
846172 536399 525
887394 337918 525
4450 680580 509
598268 134797 470
933332 942543 507
792790 374134 509
275862 623166 470
705427 954658 525
751128 558554 509
466992 108216 449
848814 960851 507
43713 73319 340
368972 333186 441
134838 543515 470
356269 567640 470
270341 106209 443
124108 384781 443
942277 330448 525
908350 945882 507
289160 520433 470
105656 53681 351
78116 202190 383
149911 566646 470
432500 92589 449
615448 880851 525
404040 677412 509
753782 604578 509
835622 319839 509
140420 399387 443
225267 39689 386
602994 423144 470
344734 94317 443
575436 77183 470
192985 810496 509
523399 37084 470
156896 627728 509
604070 916327 525
179921 930089 525
123411 686082 509
393821 481373 449
828943 567656 509
249418 141643 443
22776 9531 279
806304 958306 525
449077 990951 525
772149 600590 509
170667 87471 383
904930 511882 525
376677 776060 509
652983 713138 504
20061 949462 525
333104 745461 509
578361 93681 470
142509 472353 449
169545 768242 509
667506 6808 509
737806 105099 509
618132 585528 447
134477 934059 525
309213 2568 443
90195 283775 443
226245 810553 509
52719 704728 509
641614 876866 525
170191 888006 525
371548 954206 525
20902 144305 375
539306 344052 470
292089 232333 407
440483 17846 449
855957 631779 525
174386 886158 525
806082 441445 509
69027 281573 443
703411 718708 504
557189 765457 509
971579 601369 525
351650 293201 441
635663 792905 504
770598 600969 509
631518 94909 509
388161 556448 470
16055 23154 279
574194 852926 525
871822 772738 525
300939 30304 443
746311 471535 509
119691 423214 449
340752 946129 525
869854 272392 525
505954 801389 509
602599 630979 509
117317 562735 470
454461 674062 509
69277 962487 525
590611 873276 525
36982 200850 383
512534 609796 452
355260 577786 470
968211 338246 525
279950 584834 470
672509 424036 509
256555 672238 509
423951 118636 449
964706 220197 525
848981 614134 525
239343 412700 449
245100 265992 407
557357 458948 470
355885 185009 443
160932 573828 470
415043 640502 509
546608 844929 525
742268 744060 318
998587 119586 525
755259 845473 525
854924 891310 445
285342 768080 509
495582 904715 525
150390 242754 443
230267 804942 509
266495 92851 443
738616 423977 509
183251 816776 509
724565 385717 509
606505 637277 509
983899 836094 525
352559 943110 525
845645 192806 525
671861 911719 525
132197 659548 509
347571 687687 509
116946 370315 443
769738 512821 509
757763 254141 509
720189 527762 509
126534 275215 443
794557 465151 509
859196 841206 419
609219 324807 470
512257 897899 525
244799 347688 441
66565 808267 509
337353 892877 525
253933 721455 509
774495 124650 509
95011 478274 449
847140 425697 525
805597 473703 509
642914 224588 509
422341 578864 470
779553 672468 504
28293 941433 525
829497 90849 509
630088 547782 509
21572 50298 324
13444 870344 525
815608 136498 509
535445 707158 509
52937 457239 449
166519 284942 443
930399 874738 476
992432 815487 525
54396 608317 470
359742 293637 441
