275300 210490
304153 740375
662437 110445
689167 255460
434492 347848
771439 79935
65763 312855
598517 836037
800850 900820
778860 75594
453549 200271
622489 588553
207401 723385
367048 673883
210090 839984
565313 281135
285451 67928
944440 580640
923973 348611
439673 395989
900515 547919
45184 141320
712712 212162
778968 452679
960317 628072
683644 896881
518028 514879
193852 30368
421848 35439
691003 655363
713292 850660
233863 530275
622930 918444
300659 294532
654571 643954
488659 566364
189389 109631
394990 500228
780496 375030
151880 361802
655077 439982
839429 971502
707743 915115
19946 805778
914406 872394
914034 784380
107788 889593
346708 327811
417330 354678
932051 485495
140748 554963
218326 800024
619500 375511
74868 276331
409884 292063
933890 659587
526780 884120
711200 359263
902666 66420
380583 380128
475105 505913
808065 351929
8258 191345
413698 149269
253627 186364
186523 858557
234716 260953
450927 162775
347293 890578
578844 795836
194901 169682
86890 198573
147868 899886
763475 658112
164996 480451
866143 68269
911828 861980
607632 392426
598243 500914
261587 615005
734688 929366
762635 125861
728558 646172
558870 67707
406424 599267
603022 462993
237431 336294
33998 46105
589603 221876
32799 240530
380533 12023
26547 836617
226324 688614
938567 814329
352149 442758
881863 792646
508694 62384
448250 792449
317712 487151
535166 800926
937588 201053
535395 430201
472952 573188
21069 882759
833102 692607
912874 206446
667332 235041
860246 371530
643216 287295
471049 786841
311227 726799
880188 932195
613549 590202
396377 799823
869948 583602
646634 499558
591656 741186
53740 219365
319713 573825
92586 912074
129606 633436
388812 361532
785652 907717
959925 631203
740009 403977
234696 633175
664613 283736
609330 558324
536249 260891
304117 629938
268213 327873
79546 956754
280276 419165
189681 448777
347261 893006
337810 573880
355035 277106
641153 483227
880108 275426
802106 209231
226791 920006
65563 67587
968446 804433
606668 449963
682962 721530
772452 229607
734438 890468
927036 683264
468655 798202
718879 263315
961399 260505
83065 420062
152796 493004
882329 861649
219371 585080
135840 537349
378077 505775
205477 560608
69923 416574
62912 307670
390446 354140
596613 658486
333831 558920
708064 597638
82950 418636
309437 491224
769847 532841
12920 540792
664178 273192
138813 955556
607159 137966
860017 796576
286387 131878
340957 883267
745032 136651
230249 519329
598327 412168
403753 374062
338777 670727
411217 191614
772052 188495
105082 432817
763342 202409
520372 755553
796943 568039
811667 102284
361921 98789
71061 478897
701099 870384
407757 493276
479437 875015
868903 891114
130100 747157
421431 385817
116421 15890
557862 825757
944611 918700
287123 832372
469309 695642
474346 996452
58049 140899
653854 829001
103873 363249
684763 938969
419136 545156
644737 281354
254245 451318
410235 248084
652252 27433
922211 831300
952386 595604
937627 365073
864312 307516
589277 884105
241627 13508
268920 619088
295284 706448
237265 374895
772749 979571
190597 615061
500665 521327
80959 621136
586763 665202
216105 671680
590637 933206
555939 932734
496373 557774
705322 528225
276092 423670
133785 390064
290688 97814
701726 823082
815937 938056
282825 969555
224120 423367
717401 851884
418322 420585
706985 232961
37055 405521
159875 720415
805848 306106
150466 608089
553985 948732
452635 209502
658370 702167
579037 900451
807722 430992
650653 172073
240334 892490
182436 598709
331736 205391
709427 807107
311481 922967
449956 184964
45790 769250
728988 706299
327623 55369
474211 889503
974638 648760
545193 393116
566945 600619
548971 700464
702333 243104
190565 303377
385317 450571
778100 245197
962390 161768
601978 266402
816301 993459
208571 861462
781553 20414
234797 109132
398915 766161
387177 515274
305121 128742
836786 939077
968784 293953
748382 256548
270257 907841
314657 907338
218759 773179
868839 689923
933018 721120
900032 387409
698571 781800
250274 103714
456104 719941
700691 789663
759236 677281
414779 661830
330978 615182
26436 461892
998630 48945
75199 667226
827602 356699
571431 889831
645677 333245
896008 153973
368521 572838
849740 32840
