946254 221925 525
668555 100451 509
964147 414708 525
730184 624161 509
731033 432966 509
211511 655905 509
734677 583436 509
313391 312727 340
411636 818917 509
334819 356391 441
601554 130371 470
788221 796027 437
632972 412316 509
165051 554053 470
480615 546257 470
815977 418978 509
903464 499889 525
141931 967495 525
654668 754512 504
386337 180298 443
456401 378127 449
640782 916005 525
416254 225426 449
365169 127519 443
534040 769880 509
924494 365492 525
230346 529580 470
631009 343203 509
967686 227161 525
525114 351232 470
665347 506096 509
819975 828225 450
706265 235900 509
164731 618065 470
322286 47576 443
773739 178963 509
909346 897985 445
458032 3211 449
218665 907285 525
918991 349581 525
631294 969744 525
460868 593788 470
207479 788463 509
712199 555046 509
122466 767697 509
80519 853426 525
458945 412443 418
710537 603923 509
275281 504733 449
972334 128194 525
899053 918382 476
595634 971957 525
338774 962225 525
993062 884075 507
25461 706081 509
273943 189357 443
722383 817667 468
83518 482097 449
151041 124 375
605433 419759 470
273128 276062 358
557886 889345 525
82835 152867 375
561913 147656 470
17764 829550 509
351250 633104 509
69117 853665 525
120028 138633 344
64924 64545 268
372788 65314 443
408067 297206 441
627622 862084 525
483266 199093 449
989910 35789 525
87135 52342 351
702068 565375 509
72049 185045 383
61673 737539 509
989916 683169 525
641577 577126 509
937349 154151 525
488077 215434 449
248327 353594 441
552160 945418 525
710939 472863 509
444408 132548 449
726091 355417 509
374577 91526 443
698391 537810 509
396442 540177 470
198448 474741 449
459520 924863 525
372269 375473 361
154482 35593 375
762117 852483 525
414016 659672 509
932187 896219 476
936670 396128 525
738812 476820 509
102895 483438 449
981347 677095 525
654382 171641 509
104890 1986 351
988774 396123 525
270247 546622 470
827788 466474 509
139490 507323 449
751944 480679 509
936053 222551 525
139627 807520 509
151553 772322 509
726392 870723 525
341633 439950 449
390221 668993 509
517119 766662 509
52336 876100 525
778977 465457 509
690438 681347 398
443016 426910 400
859095 566697 525
666546 986704 525
89180 40610 351
961370 607385 525
437262 636501 509
838272 706441 525
863193 174723 525
354859 185279 443
837726 946359 525
777143 577988 509
713609 205972 509
65871 568947 470
20488 901295 525
75145 77244 351
160811 620827 470
36875 672904 509
343932 693162 509
626891 704797 504
771687 758653 468
52610 664185 509
930769 934190 370
83785 549507 470
482709 503368 426
628214 1625 509
2399 582831 470
454461 616921 470
724256 531243 509
783406 17680 509
850093 866763 419
930971 107598 525
895480 307331 525
288578 578248 470
367629 315848 441
838814 502967 525
574720 766638 509
59489 376472 443
967878 411440 525
287672 56627 443
91192 147933 375
400075 207578 443
357060 838836 525
445596 220776 449
867174 244465 525
916516 766760 525
380600 40796 443
133223 452524 449
598098 402182 470
28822 797428 509
30742 75883 340
771181 213823 509
583929 685538 509
572146 947980 525
641074 694402 442
41003 337555 443
299233 725513 509
836525 853437 525
8694 307542 443
927234 16388 525
928133 374300 525
300207 21756 443
998236 739058 525
855827 323122 525
354022 649291 509
134080 290303 443
102065 229344 386
339662 89463 443
137877 259505 443
733981 261588 509
83032 273958 443
357675 871850 525
990244 225206 525
101267 174395 383
376787 719377 509
541237 157640 470
428847 2279 449
444904 437468 400
843371 408317 525
345286 194588 443
392002 33268 443
116525 195542 383
726452 88569 509
95021 473122 449
401785 51654 443
337238 237916 407
755441 48704 509
462967 618827 470
780146 558463 509
445688 369719 449
680209 843827 525
171232 370610 443
117159 94280 354
233506 667544 509
56265 3654 340
78800 372888 443
172158 630416 509
956065 802954 525
463026 900678 525
281476 113840 443
979725 666916 525
387258 840669 525
455848 239498 449
276951 951099 525
190539 245521 443
289446 954392 525
897276 804611 525
543486 836805 509
368745 249279 441
386573 640112 509
450111 512663 470
412336 185759 449
924505 564508 525
649590 620362 509
633872 996960 525
328094 571147 470
82536 289753 443
639137 620655 509
766093 632845 504
189894 956086 525
639031 913216 525
681571 963710 525
931206 643528 525
577966 686545 509
752284 254447 509
283720 492030 449
635170 573697 509
547227 193536 470
831128 528999 509
55958 686830 509
683815 547401 509
82497 602139 470
870783 134120 525
686704 101859 509
770834 615880 509
734509 105342 509
630137 41040 509
812160 94922 509
700983 212322 509
802693 265350 509
