482230 632940
37856 3797
750947 52539
262983 604607
936218 740558
850817 604658
322854 632549
243411 1671
543397 77920
554997 103966
731556 422877
509856 620193
873987 65900
287965 821737
703880 952620
485695 604722
334062 429129
672571 671550
431192 40357
330763 764937
492949 995591
399672 303057
395095 432960
480894 130982
436260 897327
106606 610687
405509 831223
13172 503404
870864 901333
286004 783566
543839 25025
73310 632112
702596 357926
333537 174924
578943 488771
552952 605634
960436 850021
720595 869756
357850 894035
283851 815302
404292 924933
612040 120925
932452 25795
986721 833837
61541 266064
242886 990836
435677 452448
832840 70437
777958 29657
939350 554482
723968 531478
103149 183932
871004 836692
661400 870846
868052 496716
355899 120033
282613 965559
185078 542776
865286 500331
402273 765171
984354 914178
438859 723297
903957 852325
562466 972986
629035 599174
858922 406105
937342 901858
811608 166346
371196 856887
650950 690668
486914 566679
619073 286635
598365 507699
64796 138895
319437 565065
395066 901194
226117 696997
309809 937918
635306 828790
73839 416422
140505 458235
945590 60154
115394 572110
448393 450691
145813 990018
657647 892584
133999 657984
345166 933912
92678 305688
616355 226808
179952 491843
617679 334793
455339 814843
727085 424092
411820 654287
447831 893535
100480 119961
112774 534812
944140 449765
964468 534042
733906 217268
385258 97338
107487 104169
322892 12846
569671 975785
302084 765944
925863 617291
137177 550008
934109 396147
957849 862996
871125 290571
977234 110152
138368 28466
449638 48141
13239 949540
235643 881796
202714 34503
116840 362795
958415 389944
478128 594354
236264 524035
377446 918098
199829 260620
878205 385549
393997 96538
96419 50957
919451 746325
956766 634206
273207 907505
881308 516624
166000 8188
304923 817756
407355 173493
221639 697916
94462 20602
623639 941963
394286 114588
244953 950409
584978 986874
218341 256570
308156 231746
330232 341141
19461 645227
845206 140745
6017 680161
853268 582523
226026 247867
273595 718873
99493 680182
979564 577476
461656 736050
533981 605364
38544 504712
730516 938707
632815 293852
721574 227852
369820 587630
420891 955605
994396 202038
94111 741079
132601 268425
930200 479357
334157 207597
294052 310022
929292 822364
924337 393973
41489 485510
627419 138822
339632 654061
967918 353442
44941 999937
167997 590171
678231 964005
815141 688959
670983 418501
495977 614529
349729 636480
865767 833772
644672 495866
347341 589921
384253 97425
933044 993346
374131 256430
804382 18300
852289 400899
835043 815864
263507 689874
163358 248882
688977 210060
71064 62616
738490 50408
373882 684603
784048 246293
54985 911666
562488 721547
549473 973097
949538 678977
42759 116429
492587 755974
287274 910866
706851 335778
789230 387493
562834 455382
171716 443422
415327 909745
225451 633695
182425 452286
667038 744263
242728 813936
910433 499460
912609 335578
966528 658599
77857 544313
368876 618456
849072 963620
247627 403040
838777 545202
22346 807787
114506 403134
943180 487296
365772 66713
408810 73899
910508 455084
815216 373585
898676 97170
655076 702351
710925 273145
296140 311555
455243 745577
465852 559395
655567 676746
410563 473362
850568 579789
615302 552064
430599 13937
514077 786873
776974 26741
431062 503576
354757 704786
591536 952001
353521 638539
634053 309805
59837 345463
922298 392268
628458 794149
470264 795232
1 1
7 2
19 19
3 4
4 3
