487681 475477 413
888274 197039 525
565232 957144 525
73045 70229 325
868596 598641 525
166335 782841 509
63365 171053 383
486852 423151 444
937099 768896 525
596117 39747 470
55526 404644 443
47931 501060 449
935991 22678 525
459873 688452 509
173991 280019 443
504595 932831 525
516128 952206 525
486125 378018 449
69469 515772 470
422082 215762 449
76221 240240 443
459315 654909 509
21456 398359 443
38486 552972 470
603638 510586 470
998637 966028 458
158804 770851 509
483933 594138 470
813319 339113 509
504708 797123 509
499305 15524 449
835604 299459 509
575617 856590 525
828464 790457 468
795145 327580 509
780253 305539 509
788553 202839 509
101206 595706 470
654659 645621 385
204584 952836 525
120657 709955 509
214734 817487 509
144737 912810 525
439353 421284 418
785593 879796 525
682245 684901 380
26819 125645 354
261026 595679 470
640907 902988 525
573830 954135 525
626082 458279 470
231412 774506 509
346564 789156 509
252697 222733 443
220364 550515 470
315810 267188 407
80528 919495 525
336476 673505 509
404465 322200 441
839931 779852 525
855045 653070 525
628068 554517 509
555000 440842 470
451513 744591 509
761479 348700 509
439312 26672 449
756488 86654 509
867868 974110 507
274158 186143 443
884868 989673 507
282898 693754 509
666877 220721 509
545656 426239 470
19743 652534 509
836782 752691 468
804620 345263 509
379801 977608 525
485303 239932 449
63374 514060 470
925791 6320 525
263551 501874 449
659044 103849 509
121023 851301 525
482553 194257 449
643105 849614 525
211815 545144 470
316678 915589 525
192040 914049 525
783416 211150 509
910447 288622 525
485622 22233 449
310585 969435 525
373338 824871 509
999380 829060 525
51768 754042 509
429265 652316 509
857292 741344 525
912689 71710 525
150061 946840 525
847829 782763 525
899181 262930 525
546875 936504 525
767419 966231 525
356325 166025 443
636006 605593 509
404127 385005 436
838824 693716 525
458668 113710 449
156306 645909 509
758143 387491 509
193557 854483 525
645432 162298 509
966227 790747 525
7565 523727 470
161408 688338 509
676494 900807 525
982689 41403 525
754291 661560 504
399282 699960 509
805889 925107 525
59344 168577 383
868746 180225 525
347333 125486 443
649110 666572 442
355368 688971 509
110345 77758 354
460178 993396 525
684946 256936 509
753381 392899 509
157742 854603 525
70650 431663 449
752747 627433 504
120361 757792 509
594469 402014 470
427456 483643 444
105512 560168 470
35665 774550 509
970529 117046 525
42399 42089 288
522127 4559 470
929307 758368 525
638725 244922 509
721401 487984 509
300725 657825 509
223929 353877 443
402043 612560 470
560004 133929 470
950716 448203 525
43345 42580 257
576783 388947 470
850172 8162 525
439117 501345 444
647761 258903 509
725378 785520 468
371076 553742 470
731158 565629 509
584659 620528 447
296450 961746 525
462140 652461 509
155133 326079 443
984745 343518 525
402487 958102 525
660163 321729 509
512984 132278 470
8232 369803 443
870001 469741 525
947097 54225 525
256986 59799 443
863734 64109 525
235162 516105 470
455386 480966 444
86831 939615 525
942552 627212 525
974335 768620 525
64767 628097 509
571765 574770 372
736289 725910 424
730273 691670 504
273827 65242 443
790267 786172 406
764254 441374 509
489371 13783 449
889050 322858 525
31080 980949 525
582010 562524 421
51689 503134 449
819401 202581 509
695486 307985 509
20267 326711 443
607023 507139 470
80542 237219 443
387583 34405 443
198337 821389 509
537963 188304 470
253763 3041 443
495294 489874 426
282144 261024 407
994799 378823 525
807112 207986 509
834237 325595 509
681616 478320 509
381608 160790 443
44933 371239 443
90998 882102 525
421625 116313 449
547932 533128 452
898002 715609 525
210216 520248 470
487509 918774 525
330161 997483 525
651427 6389 509
12043 113119 354
782115 765154 468
612730 180275 470
879049 355074 525
735887 827269 468
590868 856493 525
703496 910392 525
853050 53077 525
52648 249426 443
863839 331118 525
7877 778715 509
231303 920015 525
761849 189641 509
201257 101824 383
828485 327622 509
754077 690135 504
286109 160237 443
454873 777734 509
362317 155053 443
949615 810955 525
33691 464348 449
354122 161238 443
721638 408240 509
621392 272308 470
210212 94298 383
765626 733920 424
246702 757702 509
144319 831269 509
282514 417459 449
844599 58500 525
656443 537593 509
656400 856578 525
89338 746351 509
5161 900345 525
90360 256960 443
123544 334985 443
258250 106976 443
739198 63194 509
712766 727379 411
